Changelog - A0.9.3.109 - Relies on InfernoCore version A0.1.3 - Breaks API 

NOTE: This version depends on Forge version 9.11.0.879+ and is for MC 1.6.4!

Version changed to 0.9.3.
InfernoCore version changed to A0.1.3.

[Addition] Started work on plasmatic stuff. Ooooh, what could this be?!
[Addition] Added model and texture for Research Panel.
[Addition] Added model and texture for Material Compartment.
[Addition] Research Panel can now be rotated.
[Addition] Craftmistry will now send every infuser, compressor, air filter and reactor recipe via IMC to EE3. Once EE3's EMC system is ready, Craftmistry items will automatically get EMC values assigned!
[Addition/InfernoCore] Added a collection API that can be used to filter collections.
[Addition/API] Added more documentation.
[Addition/API] Added a method that can be used to register custom Detector conditions.
[Change] Detector conditions are no longer hard-coded. Modders can add their own now!
[Change] Changed the icon for the Material Compartment from a chest to its new model.
[Change/InfernoCore] Changed some methods in MathUtils around.
[Fix] Fixed the Detector GUI displaying the current condition tooltip a little bit too low.
[Fix] If you break a research panel that is part of a research laboratory, every part of that laboratory will be removed from the laboratory.
[Fix] Fixed shift-clicking in the detector not working properly.
[Fix] Proper fix for the collector picking up ghost items (hopefully).
[Fix] Fixed my broken grammar in some log outputs.
[Fix/InfernoCore] You can no longer kill yourself by building blocks INTO yourself if you stand on Multiblocks. Very strange bug.

- Infernio, HD of Craftmistry